Vrij3ToyShooter/Binaries/Win64/Vrij3ToyShooter.exe	2020-09-11T12:38:46.168Z
Engine/Extras/Redist/en-us/UE4PrereqSetup_x64.exe	2020-08-31T09:51:23.412Z
Engine/Binaries/ThirdParty/Oculus/OVRPlugin/OVRPlugin/Win64/OVRPlugin.dll	2020-08-31T09:48:05.151Z
Engine/Binaries/ThirdParty/DbgHelp/dbghelp.dll	2020-08-31T09:47:35.449Z
Engine/Binaries/ThirdParty/Steamworks/Steamv147/Win64/steam_api64.dll	2020-08-31T09:48:33.124Z
Engine/Binaries/ThirdParty/PhysX3/Win64/VS2015/PxFoundationPROFILE_x64.dll	2020-08-31T09:48:10.557Z
Engine/Binaries/ThirdParty/PhysX3/Win64/VS2015/PxPvdSDKPROFILE_x64.dll	2020-08-31T09:48:10.597Z
Engine/Binaries/ThirdParty/PhysX3/Win64/VS2015/PhysX3PROFILE_x64.dll	2020-08-31T09:48:10.305Z
Engine/Binaries/ThirdParty/PhysX3/Win64/VS2015/PhysX3CookingPROFILE_x64.dll	2020-08-31T09:48:10.212Z
Engine/Binaries/ThirdParty/PhysX3/Win64/VS2015/PhysX3CommonPROFILE_x64.dll	2020-08-31T09:48:10.153Z
Engine/Binaries/ThirdParty/PhysX3/Win64/VS2015/APEX_ClothingPROFILE_x64.dll	2020-08-31T09:48:08.414Z
Engine/Binaries/ThirdParty/PhysX3/Win64/VS2015/APEX_LegacyPROFILE_x64.dll	2020-08-31T09:48:08.969Z
Engine/Binaries/ThirdParty/PhysX3/Win64/VS2015/ApexFrameworkPROFILE_x64.dll	2020-08-31T09:48:09.290Z
Engine/Binaries/ThirdParty/PhysX3/Win64/VS2015/NvClothPROFILE_x64.dll	2020-08-31T09:48:09.564Z
Engine/Binaries/ThirdParty/Ogg/Win64/VS2015/libogg_64.dll	2020-08-31T09:48:05.243Z
Engine/Binaries/ThirdParty/Vorbis/Win64/VS2015/libvorbis_64.dll	2020-08-31T09:48:36.441Z
Engine/Binaries/ThirdParty/Vorbis/Win64/VS2015/libvorbisfile_64.dll	2020-08-31T09:48:36.450Z
Engine/Binaries/ThirdParty/NVIDIA/NVaftermath/Win64/GFSDK_Aftermath_Lib.x64.dll	2020-08-31T09:48:04.867Z
Engine/Binaries/ThirdParty/OpenVR/OpenVRv1_5_17/Win64/openvr_api.dll	2020-08-31T09:48:05.391Z
Engine/Binaries/ThirdParty/Windows/WinPixEventRuntime/x64/WinPixEventRuntime.dll	2020-08-31T09:48:36.642Z
Engine/Binaries/ThirdParty/Windows/XAudio2_9/x64/xaudio2_9redist.dll	2020-08-31T09:48:36.903Z
Vrij3ToyShooter.exe	2020-09-11T12:41:29.875Z
